Chapter 3 データ | 心理データ応用解析法
…
##   x y x_2 x_3
## 4 4 d   9  13
## 5 5 e  10  15

3.5.3 tibble

更に、Rにはデータフレームの可読性を向上させたtibbleというデータ形式が用意されている。tibble形式のデータを扱うには、tibbleパッケージが必要となる。

as_tibble()でデータフレームをtibble形式にすることができる。Rにあらかじめ入っているサンプルデータirisを試しにtibble型にしてみよう。

dat_tibble = tibble::as_tibble(iris) 
dat_tibble

## # A tibble: 150 × 5
##    Sepal.Length Sepal.Width Petal.Length Petal.Width Species
##           <dbl>       <dbl>        <dbl>       <dbl> <fct>  
##  1          5.1         3.5          1.4         0.2 setosa 
##  2          4.9         3            1.4         0.2 setosa 
##  3          4.7         3.2          1.3         0.2 setosa 
##  4          4.6         3.1          1.5         0.2 setosa 
##  5          5           3.6          1.4         0.2 setosa 
##  6          5.4         3.9          1.7         0.4 setosa 
##  7          4.6         3.4          1.4         0.3 setosa 
##  8          5           3.4          1.5         0.2 setosa 
##  9          4.4         2.9          1.4         0.2 setosa 
## 10          4.9         3.1          1.5         0.1 setosa 
## # ℹ 140 more rows
…
