A tidyverseとは？ | 心理学データ応用解析法
…
z_tibble = as_tibble(z)
z_tibble

## # A tibble: 3 x 2
##       x     y
##   <dbl> <dbl>
## 1     1     4
## 2     2     5
## 3     3     6

dat = tibble::as_tibble(iris) #irisデータをtibble型にして，datという名前で保存する
dat

## # A tibble: 150 x 5
##    Sepal.Length Sepal.Width Petal.Length Petal.Width Species
##           <dbl>       <dbl>        <dbl>       <dbl> <fct>  
##  1          5.1         3.5          1.4         0.2 setosa 
##  2          4.9         3            1.4         0.2 setosa 
##  3          4.7         3.2          1.3         0.2 setosa 
##  4          4.6         3.1          1.5         0.2 setosa 
##  5          5           3.6          1.4         0.2 setosa 
##  6          5.4         3.9          1.7         0.4 setosa 
##  7          4.6         3.4          1.4         0.3 setosa 
##  8          5           3.4          1.5         0.2 setosa 
##  9          4.4         2.9          1.4         0.2 setosa 
## 10          4.9         3.1          1.5         0.1 setosa 
## # … with 140 more rows
…
A.5 dplyr

データを操作するのに特化した関数が用意されている。
* mutate(): 変数の追加
* filter(): 行の抽出
* select(): 変数の抽出
* summarise(): 複数の変数を1つにまとめる
* arrange(): データを並べ替える
* group_by(): グループにまとめる

dat = tibble::as_tibble(iris) #irisデータをtibble型にして，datという名前で保存する
dat

## # A tibble: 150 x 5
##    Sepal.Length Sepal.Width Petal.Length Petal.Width Species
##           <dbl>       <dbl>        <dbl>       <dbl> <fct>  
##  1          5.1         3.5          1.4         0.2 setosa 
##  2          4.9         3            1.4         0.2 setosa 
##  3          4.7         3.2          1.3         0.2 setosa 
##  4          4.6         3.1          1.5         0.2 setosa 
##  5          5           3.6          1.4         0.2 setosa 
##  6          5.4         3.9          1.7         0.4 setosa 
##  7          4.6         3.4          1.4         0.3 setosa 
##  8          5           3.4          1.5         0.2 setosa 
##  9          4.4         2.9          1.4         0.2 setosa 
## 10          4.9         3.1          1.5         0.1 setosa 
## # … with 140 more rows

dat2 = dplyr::mutate(dat, z = Sepal.Length * 2) #新しい変数zを追加する
dat2

## # A tibble: 150 x 6
##    Sepal.Length Sepal.Width Petal.Length Petal.Width Species     z
##           <dbl>       <dbl>        <dbl>       <dbl> <fct>   <dbl>
##  1          5.1         3.5          1.4         0.2 setosa   10.2
##  2          4.9         3            1.4         0.2 setosa    9.8
##  3          4.7         3.2          1.3         0.2 setosa    9.4
##  4          4.6         3.1          1.5         0.2 setosa    9.2
##  5          5           3.6          1.4         0.2 setosa   10  
##  6          5.4         3.9          1.7         0.4 setosa   10.8
##  7          4.6         3.4          1.4         0.3 setosa    9.2
##  8          5           3.4          1.5         0.2 setosa   10  
##  9          4.4         2.9          1.4         0.2 setosa    8.8
## 10          4.9         3.1          1.5         0.1 setosa    9.8
## # … with 140 more rows

dat2 = dplyr::filter(dat, Species == "versicolor") #Speciesのうち，versicolorのみを取り出す。「イコール」は=ではなく，==にするのに注意（計算式と条件式ではイコールの表現が異なる）。
dat2

## # A tibble: 50 x 5
##    Sepal.Length Sepal.Width Petal.Length Petal.Width Species   
##           <dbl>       <dbl>        <dbl>       <dbl> <fct>     
##  1          7           3.2          4.7         1.4 versicolor
##  2          6.4         3.2          4.5         1.5 versicolor
##  3          6.9         3.1          4.9         1.5 versicolor
##  4          5.5         2.3          4           1.3 versicolor
##  5          6.5         2.8          4.6         1.5 versicolor
##  6          5.7         2.8          4.5         1.3 versicolor
##  7          6.3         3.3          4.7         1.6 versicolor
##  8          4.9         2.4          3.3         1   versicolor
##  9          6.6         2.9          4.6         1.3 versicolor
## 10          5.2         2.7          3.9         1.4 versicolor
## # … with 40 more rows

dat2 = dplyr::select(dat, Sepal.Length, Petal.Length) #データから，Sepal.LengthとPetal.Lengthの列を取り出す。
dat2

## # A tibble: 150 x 2
##    Sepal.Length Petal.Length
##           <dbl>        <dbl>
##  1          5.1          1.4
##  2          4.9          1.4
##  3          4.7          1.3
##  4          4.6          1.5
##  5          5            1.4
##  6          5.4          1.7
##  7          4.6          1.4
##  8          5            1.5
##  9          4.4          1.4
## 10          4.9          1.5
## # … with 140 more rows

dat2 = dplyr::summarise(dat, M = mean(Sepal.Length), SD = sd(Sepal.Length)) #Sepal.Lengthの平均を求め，Mという変数で保存する。同じく，SDという変数を新たに作る。
dat2

## # A tibble: 1 x 2
##       M    SD
##   <dbl> <dbl>
## 1  5.84 0.828

dat2 = dplyr::arrange(dat, Sepal.Length) #Sepal.Lengthを小さい順に並び替える。
dat2

## # A tibble: 150 x 5
##    Sepal.Length Sepal.Width Petal.Length Petal.Width Species
##           <dbl>       <dbl>        <dbl>       <dbl> <fct>  
##  1          4.3         3            1.1         0.1 setosa 
##  2          4.4         2.9          1.4         0.2 setosa 
##  3          4.4         3            1.3         0.2 setosa 
##  4          4.4         3.2          1.3         0.2 setosa 
##  5          4.5         2.3          1.3         0.3 setosa 
##  6          4.6         3.1          1.5         0.2 setosa 
##  7          4.6         3.4          1.4         0.3 setosa 
##  8          4.6         3.6          1           0.2 setosa 
##  9          4.6         3.2          1.4         0.2 setosa 
## 10          4.7         3.2          1.3         0.2 setosa 
## # … with 140 more rows

dat2 = dplyr::group_by(dat, Species) #Speciesをグループとしてまとめる。新しくGroupsというものが作られている。（使い方については後述）
dat2

## # A tibble: 150 x 5
## # Groups:   Species [3]
##    Sepal.Length Sepal.Width Petal.Length Petal.Width Species
##           <dbl>       <dbl>        <dbl>       <dbl> <fct>  
##  1          5.1         3.5          1.4         0.2 setosa 
##  2          4.9         3            1.4         0.2 setosa 
##  3          4.7         3.2          1.3         0.2 setosa 
##  4          4.6         3.1          1.5         0.2 setosa 
##  5          5           3.6          1.4         0.2 setosa 
##  6          5.4         3.9          1.7         0.4 setosa 
##  7          4.6         3.4          1.4         0.3 setosa 
##  8          5           3.4          1.5         0.2 setosa 
##  9          4.4         2.9          1.4         0.2 setosa 
## 10          4.9         3.1          1.5         0.1 setosa 
## # … with 140 more rows

A.6 purrr

パイプ処理が使える。パイプ（%>%）で関数をつなげることで，1行のプログラムで複数の処理をすることができる。

※これはとても便利なので覚えよう。例えば，練習問題に載せている「グループ別に平均などを算出する」などをするには，パイプ処理を知らないと難しい。

dat = tibble::as_tibble(iris) #irisデータをtibble型にして，datという名前で保存する
dat

## # A tibble: 150 x 5
##    Sepal.Length Sepal.Width Petal.Length Petal.Width Species
##           <dbl>       <dbl>        <dbl>       <dbl> <fct>  
##  1          5.1         3.5          1.4         0.2 setosa 
##  2          4.9         3            1.4         0.2 setosa 
##  3          4.7         3.2          1.3         0.2 setosa 
##  4          4.6         3.1          1.5         0.2 setosa 
##  5          5           3.6          1.4         0.2 setosa 
##  6          5.4         3.9          1.7         0.4 setosa 
##  7          4.6         3.4          1.4         0.3 setosa 
##  8          5           3.4          1.5         0.2 setosa 
##  9          4.4         2.9          1.4         0.2 setosa 
## 10          4.9         3.1          1.5         0.1 setosa 
## # … with 140 more rows

dat2 = dat %>% dplyr::filter(Species == "setosa") %>% dplyr::select(Sepal.Width, Sepal.Length) %>% dplyr::arrange(Sepal.Width)
#Speciesがsetosaだけの行を抽出し，更にSepal.WidthとSepal.Lengthの列を取り出し，Sepal.Widthの小さい順に並び替える。これを1行で実行
dat2

## # A tibble: 50 x 2
##    Sepal.Width Sepal.Length
##          <dbl>        <dbl>
##  1         2.3          4.5
##  2         2.9          4.4
##  3         3            4.9
##  4         3            4.8
##  5         3            4.3
##  6         3            5  
##  7         3            4.4
##  8         3            4.8
##  9         3.1          4.6
## 10         3.1          4.9
## # … with 40 more rows
…
